[
    "https://media.discordapp.net/attachments/531827668002275328/682642520060330037/fdbiq6ovshj41.jpg?width=313&height=443",
    "https://media.discordapp.net/attachments/531827668002275328/682430717652893754/62brFYV_d.jpg?width=366&height=444",
    "https://media.discordapp.net/attachments/531827668002275328/682747340041224248/4Gg9Cp2_d.jpg?width=215&height=443",
    "https://media.discordapp.net/attachments/531827668002275328/682403179966759034/TmOtKZi_d.jpg?width=313&height=443",
    "https://media.discordapp.net/attachments/531827668002275328/682217495519690759/3j4PMzx_d.jpg",
    "https://media.discordapp.net/attachments/531827668002275328/682097348377444353/6dr1sjocd6j41.png?width=384&height=444",
    "https://media.discordapp.net/attachments/531827668002275328/681944451509256256/s5olejpbogi41.jpg?width=259&height=443",
    "https://media.discordapp.net/attachments/531827668002275328/681880153022136427/lw6pzke4m2j41.jpg?width=317&height=444",
    "https://media.discordapp.net/attachments/531827668002275328/681855096870797342/ijj5qvoyc2j41.jpg?width=310&height=443",
    "https://media.discordapp.net/attachments/531827668002275328/681855083830706188/boe5obvha2j41.jpg?width=254&height=443",
    "https://media.discordapp.net/attachments/531827668002275328/681855060774617121/yda6zvj7a2j41.jpg?width=273&height=444",
    "https://media.discordapp.net/attachments/531827668002275328/681633595336425528/1rah2.png?width=313&height=444",
    "https://media.discordapp.net/attachments/531827668002275328/681617579437326337/wqecde5s0xi41.jpg?width=626&height=444",
    "https://media.discordapp.net/attachments/531827668002275328/681223233403486208/fCNMdAp_d.jpg?width=353&height=443",
    "https://media.discordapp.net/attachments/531827668002275328/681072466344411293/6ACB9EE.jpg?width=313&height=443",
    "https://media.discordapp.net/attachments/531827668002275328/680816567189110803/yTj4mnP_d.jpg?width=305&height=443",
    "https://media.discordapp.net/attachments/531827668002275328/680487709894115333/ZrnsiEE_d.jpg?width=443&height=443",
    "https://media.discordapp.net/attachments/531827668002275328/680187310377009192/m9dfn0cte4h41.jpg?width=269&height=444",
    "https://media.discordapp.net/attachments/531827668002275328/680187145519890496/3B0Qg2t_d.jpg?width=332&height=443",
    "https://media.discordapp.net/attachments/531827668002275328/680187145209905189/ohbefszcy4i41.jpg?width=591&height=444",
    "https://media.discordapp.net/attachments/531827668002275328/680164120334565408/2270b80.jpg?width=314&height=444",
    "https://media.discordapp.net/attachments/531827668002275328/680058208118636562/zlqc3z4b80i41.jpg?width=313&height=443",
    "https://media.discordapp.net/attachments/531827668002275328/680051413883289726/f68c85c.png?width=301&height=443",
    "https://media.discordapp.net/attachments/531827668002275328/680051413312864299/6ae2e79.jpg?width=295&height=444",
    "https://media.discordapp.net/attachments/531827668002275328/679341436411445256/IUHUn9u_d.jpg?width=332&height=444",
    "https://media.discordapp.net/attachments/531827668002275328/678711958500802560/484738f.png?width=284&height=443",
    "https://media.discordapp.net/attachments/531827668002275328/678711958048079882/346a200.jpg?width=273&height=444",
    "https://media.discordapp.net/attachments/531827668002275328/678711957800484884/ddfe48b.jpg?width=313&height=443",
    "https://media.discordapp.net/attachments/531827668002275328/678711957028864052/a1dc7ca.png?width=443&height=443",
    "https://media.discordapp.net/attachments/531827668002275328/677683354623148033/DevilHS-775781-MR.png?width=334&height=443",
    "https://media.discordapp.net/attachments/531827668002275328/677362365116841984/erzzz151lkg41.png?width=481&height=443",
    "https://media.discordapp.net/attachments/531827668002275328/677028522652467231/image1.jpg?width=313&height=444",
    "https://media.discordapp.net/attachments/531827668002275328/677028522501341194/image0.jpg",
    "https://media.discordapp.net/attachments/531827668002275328/677028518609027102/image9.jpg",
    "https://media.discordapp.net/attachments/531827668002275328/677028518248579103/image8.jpg",
    "https://media.discordapp.net/attachments/531827668002275328/677028518021955604/image7.jpg",
    "https://media.discordapp.net/attachments/531827668002275328/677028517564645376/image6.jpg?width=272&height=443",
    "https://media.discordapp.net/attachments/531827668002275328/677028517325701139/image5.jpg",
    "https://media.discordapp.net/attachments/531827668002275328/677028517078106112/image4.jpg?width=287&height=443",
    "https://media.discordapp.net/attachments/531827668002275328/677028516713463808/image3.jpg",
    "https://media.discordapp.net/attachments/531827668002275328/677028516285513738/image2.jpg",
    "https://media.discordapp.net/attachments/531827668002275328/677028516092706816/image1.jpg",
    "https://media.discordapp.net/attachments/531827668002275328/677028515836723220/image0.jpg",
    "https://media.discordapp.net/attachments/531827668002275328/676127612002631694/image0.jpg?width=313&height=443",
    "https://media.discordapp.net/attachments/531827668002275328/674469521481793536/lj2edPZ5AD0lLyKJu4JVuBBBOk6ly_EHuFxNx7xqWkQ.png?width=238&height=443",
    "https://media.discordapp.net/attachments/531827668002275328/674469495309336578/Ff8oAs5Q1lab8g9AwvYRsN3WE980M1638KJTiicbbqo.png?width=313&height=443",
    "https://media.discordapp.net/attachments/531827668002275328/674469461415297034/89eKMcnoEkORlVzG8KqIoZvo4xBOsa8TzSeLcLJqpxk.png?width=316&height=443",
    "https://media.discordapp.net/attachments/531827668002275328/674469432143380480/VAlo--OJwESYsuYyetifb6G7feKSvRecA7HbuOPuGKI.png",
    "https://media.discordapp.net/attachments/531827668002275328/674469228925157376/ym2eoh217i841.png?width=313&height=443",
    "https://media.discordapp.net/attachments/531827668002275328/674469195538235402/9a913fhf42a31.png?width=222&height=443",
    "https://media.discordapp.net/attachments/531827668002275328/673780241491165216/vwah47yqt4o31.png",
    "https://media.discordapp.net/attachments/531827668002275328/673775654524944424/h9mg9nb8ele41.png?width=314&height=443",
    "https://media.discordapp.net/attachments/531827668002275328/673766182691799090/FFZUenqIv9lJLYphG-syZyKyCEMH2kLzMH3hCeWgMFo.png?width=390&height=444",
    "https://media.discordapp.net/attachments/531827668002275328/673765900410945564/NZ28NeaHY6LQQmysatMVVLVESpOySnUtZORluTLASp4.png?width=201&height=443",
    "https://media.discordapp.net/attachments/531827668002275328/673764708507189261/xt8ov8wtzv931.png?width=313&height=443",
    "https://media.discordapp.net/attachments/531827668002275328/673764414343741440/vfeIOOfhUUQcZ9VA9wzVA0cdbP9UhpAVPr6qrE5X70I.png?width=334&height=443",
    "https://media.discordapp.net/attachments/531827668002275328/673764386048835604/frx8fgaPRWMth55XpBgX0AW7R4dpp0HS9b_UQ7vdyZA.png?width=591&height=444",
    "https://media.discordapp.net/attachments/531827668002275328/673760648634826783/bu8mcku29rn31.png?width=627&height=443",
    "https://media.discordapp.net/attachments/531827668002275328/673757970676449300/Qi9XysPW-OP-y8RYKOyzl9Nl0vPUh8vHH_ssyag6fr4.png?width=313&height=443",
    "https://media.discordapp.net/attachments/531827668002275328/670981689438240778/image0.jpg?width=421&height=443",
    "https://media.discordapp.net/attachments/531827668002275328/669512612366516234/dark_elementalist_lux_elementalist_lux_and_luxanna_crownguard_league_of_legends_drawn_by_kumiko_shib.jpg?width=332&height=443",
    "https://media.discordapp.net/attachments/531827668002275328/666766388911931420/image0.jpg?width=313&height=443",
    "https://media.discordapp.net/attachments/531827668002275328/666260491626086403/image0.jpg?width=307&height=443",
    "https://media.discordapp.net/attachments/531827668002275328/666063880287420434/image0.jpg?width=327&height=443",
    "https://media.discordapp.net/attachments/531827668002275328/665947713916895232/blagectzq1641.png?width=298&height=443",
    "https://media.discordapp.net/attachments/531827668002275328/665721393601577012/image0.jpg?width=392&height=443",
    "https://media.discordapp.net/attachments/531827668002275328/665637982757191680/image3.jpg?width=267&height=443",
    "https://media.discordapp.net/attachments/531827668002275328/665637981511614477/image1.jpg?width=295&height=443",
    "https://media.discordapp.net/attachments/531827668002275328/665637981511614475/image0.jpg?width=570&height=444",
    "https://media.discordapp.net/attachments/531827668002275328/665621659537113098/image0.jpg?width=412&height=443",
    "https://media.discordapp.net/attachments/531827668002275328/665608395654692864/image0.jpg?width=313&height=443",
    "https://media.discordapp.net/attachments/531827668002275328/664182605884686349/image0.jpg?width=590&height=443",
    "https://media.discordapp.net/attachments/531827668002275328/664162725005361162/image0.jpg?width=314&height=443",
    "https://media.discordapp.net/attachments/531827668002275328/660748893964730369/5b6fe4e2cba55c5700100546781dd46d.png?width=788&height=444",
    "https://media.discordapp.net/attachments/531827668002275328/660679829032534036/IMG_20191223_114520.jpg?width=312&height=443",
    "https://media.discordapp.net/attachments/531827668002275328/660679680797442049/77933007_p0_master1200.png?width=295&height=443",
    "https://media.discordapp.net/attachments/531827668002275328/660154664418803748/lPe9gOi.png?width=276&height=443",
    "https://media.discordapp.net/attachments/531827668002275328/660154664418803722/cc5nzdcx0r641.jpg?width=590&height=443",
    "https://media.discordapp.net/attachments/531827668002275328/660154435464462380/JiJjLGu.png?width=313&height=443",
    "https://media.discordapp.net/attachments/531827668002275328/660154357853192192/QY6Tinq.jpg?width=248&height=444",
    "https://media.discordapp.net/attachments/531827668002275328/660096044037832715/80693261_1899427176856409_1937826288324575232_o.jpg?width=309&height=444",
    "https://media.discordapp.net/attachments/531827668002275328/659482294230319140/image0.jpg?width=291&height=443",
    "https://media.discordapp.net/attachments/531827668002275328/658075033393954860/image3.jpg?width=314&height=444",
    "https://media.discordapp.net/attachments/531827668002275328/658075032488116247/image0.jpg?width=314&height=444",
    "https://media.discordapp.net/attachments/531827668002275328/657016648254881816/7eea07a.jpg?width=283&height=443",
    "https://media.discordapp.net/attachments/531827668002275328/656896372330725396/image0.jpg?width=315&height=444",
    "https://media.discordapp.net/attachments/531827668002275328/655454798136475659/image0.jpg?width=446&height=443",
    "https://media.discordapp.net/attachments/531827668002275328/651118987773476889/image0.jpg?width=314&height=444",
    "https://media.discordapp.net/attachments/531827668002275328/648392695881924609/image0.jpg?width=224&height=443",
    "https://media.discordapp.net/attachments/531827668002275328/648392667612577792/image0.jpg?width=317&height=444",
    "https://media.discordapp.net/attachments/531827668002275328/648392530982862870/image0.jpg?width=316&height=443",
    "https://media.discordapp.net/attachments/531827668002275328/648392239470477333/image1.jpg?width=443&height=443",
    "https://media.discordapp.net/attachments/531827668002275328/648392239470477332/image0.jpg?width=284&height=443",
    "https://media.discordapp.net/attachments/531827668002275328/644958744945360906/image0.jpg?width=276&height=443",
    "https://media.discordapp.net/attachments/531827668002275328/644717099402657792/image0.jpg?width=789&height=443",
    "https://media.discordapp.net/attachments/531827668002275328/643475499301077002/image0.jpg?width=572&height=443",
    "https://media.discordapp.net/attachments/531827668002275328/641680857106743305/image0.jpg?width=756&height=443",
    "https://media.discordapp.net/attachments/531827668002275328/641136647047610408/image0.jpg?width=625&height=443",
    "https://media.discordapp.net/attachments/531827668002275328/640395541133393920/image0.jpg?width=313&height=443",
    "https://media.discordapp.net/attachments/531827668002275328/639262742175416330/image0.jpg?width=277&height=444",
    "https://media.discordapp.net/attachments/531827668002275328/636157286112559104/himaJYw.jpg?width=532&height=444",
    "https://media.discordapp.net/attachments/531827668002275328/683361680012345511/vuu6i60p4wj41.png?width=346&height=443",
    "https://media.discordapp.net/attachments/531827668002275328/683517408434192416/KQ3VjfG_d.jpg?width=317&height=444",
    "https://media.discordapp.net/attachments/531827668002275328/632998232452104202/image0.jpg?width=500&height=443",
    "https://media.discordapp.net/attachments/531827668002275328/632338880300843019/image0.jpg?width=313&height=443",
    "https://media.discordapp.net/attachments/531827668002275328/631301661557522434/image0.jpg?width=332&height=443",
    "https://media.discordapp.net/attachments/531827668002275328/630448178491293747/image0.png?width=590&height=443",
    "https://media.discordapp.net/attachments/531827668002275328/630448111336161300/image0.png?width=590&height=443",
    "https://media.discordapp.net/attachments/531827668002275328/630448109461438474/image0.png?width=590&height=443",
    "https://media.discordapp.net/attachments/531827668002275328/630448101211242516/image0.png?width=590&height=443",
    "https://media.discordapp.net/attachments/531827668002275328/630448093711564800/image0.png?width=590&height=443",
    "https://media.discordapp.net/attachments/531827668002275328/630446043980496906/image0.jpg?width=332&height=443",
    "https://media.discordapp.net/attachments/531827668002275328/630446037819064328/image0.jpg?width=332&height=443",
    "https://media.discordapp.net/attachments/531827668002275328/630043978040999936/image0.jpg?width=628&height=444",
    "https://media.discordapp.net/attachments/531827668002275328/630037129334095873/image0.jpg?width=315&height=444",
    "https://media.discordapp.net/attachments/531827668002275328/630037117044523029/image0.jpg?width=317&height=444",
    "https://konachan.com/sample/a616f14280c1c3e4c026fad4d6c32c55/Konachan.com%20-%20316710%20sample.jpg",
    "https://konachan.com/jpeg/3dfcf485e33fc56b503325ef23a78037/Konachan.com%20-%20316568%20aqua_eyes%20blonde_hair%20bondage%20braids%20cameltoe%20fang%20fate_grand_order%20fate_%28series%29%20flat_chest%20long_hair%20scarlettear33%20swimsuit%20tentacles.jpg",
    "https://konachan.com/sample/fd3336855eff4096c07b0ed3445d54e1/Konachan.com%20-%20316455%20sample.jpg",
    "https://konachan.com/sample/6b56f616636dee37b9cd7a3f4286bb9c/Konachan.com%20-%20316447%20sample.jpg",
    "https://konachan.com/sample/6d50fa9d193d2b7be8ea12f362b80c84/Konachan.com%20-%20315883%20sample.jpg",
    "https://konachan.com/sample/a92c3ad312ecc4fccf7f583e4849c1ae/Konachan.com%20-%20315884%20sample.jpg",
    "https://konachan.com/sample/346b73a9a6249b76b4d902c1e10e8f3a/Konachan.com%20-%20315828%20sample.jpg",
    "https://konachan.com/sample/647c499d8b46970042625601133a0d18/Konachan.com%20-%20315321%20sample.jpg",
    "https://konachan.com/sample/362725c208ad806b49e63f40561caeac/Konachan.com%20-%20315320%20sample.jpg",
    "https://konachan.com/sample/7e331d148a2b345d8891d4b2a9c5d7a0/Konachan.com%20-%20315248%20sample.jpg",
    "https://konachan.com/sample/96f609d7d44c728efc56981706925b31/Konachan.com%20-%20315247%20sample.jpg",
    "https://konachan.com/jpeg/0918ba4a839a54019d9134c9a53c387b/Konachan.com%20-%20315198%20anthropomorphism%20ass%20azur_lane%20bondage%20long_hair%20panties%20pantyhose%20red_hair%20see_through%20skirt%20skirt_lift%20twintails%20underwear%20yoshiheihe.jpg",
    "https://konachan.com/sample/f9fa53d9c84cb91e888ffebbaadb60dd/Konachan.com%20-%20314894%20sample.jpg",
    "https://konachan.com/sample/a5493092fa07fd55606e05b4bf98748a/Konachan.com%20-%20314756%20sample.jpg",
    "https://konachan.com/sample/bc2d55af82a86072330a918499be8788/Konachan.com%20-%20314542%20sample.jpg",
    "https://konachan.com/sample/6e240863e0243abfe6bb8d959464fa7c/Konachan.com%20-%20314481%20sample.jpg",
    "https://konachan.com/sample/72faaad5c52e32d951f30c92954bee2e/Konachan.com%20-%20314326%20sample.jpg",
    "https://konachan.com/sample/a2441778a6bafd4251936727b3bd4df3/Konachan.com%20-%20314069%20sample.jpg",
    "https://konachan.com/sample/266e384f3d043ab4a5e37c108a5a2bfd/Konachan.com%20-%20314065%20sample.jpg",
    "https://konachan.com/sample/caff5e7274a8141e95822913af15d9da/Konachan.com%20-%20314032%20sample.jpg",
    "https://konachan.com/sample/851c56b73b204a704410a44605d069aa/Konachan.com%20-%20313782%20sample.jpg",
    "https://konachan.com/jpeg/163ed4cbe0e542484733e18a953683ea/Konachan.com%20-%20313778%20aliasing%20arknights%20black_hair%20blush%20bodhi_wushushenghua%20bondage%20breasts%20chain%20cleavage%20eunectes_%28arknights%29%20flowers%20garter%20goggles%20tail.jpg",
    "https://konachan.com/sample/e94bc73cafb5d81656f0f54051a3676f/Konachan.com%20-%20313642%20sample.jpg",
    "https://konachan.com/sample/0fe74ca43f2ccdb1d2406f5dfcde1a1a/Konachan.com%20-%20313640%20sample.jpg",
    "https://konachan.com/sample/bef9b55682a955d13d373f3e6f179dcd/Konachan.com%20-%20313498%20sample.jpg",
    "https://konachan.com/sample/01db1ae10738b66923954534a30ffb52/Konachan.com%20-%20313423%20sample.jpg",
    "https://konachan.com/sample/d85db565ce195e5fbc3fcc4045f80fe0/Konachan.com%20-%20313418%20sample.jpg"
]