[
    "https://img2.gelbooru.com/images/9b/00/9b0013f929112eafc0e27c5b3ee90e0f.jpg",
    "https://img2.gelbooru.com/images/01/b4/01b490ce4a5c49bd4814c00a2843224f.jpeg",
    "https://img2.gelbooru.com/samples/66/a3/sample_66a32ae5b5b9ba6c97f07b4133b02e6c.jpg",
    "https://img2.gelbooru.com/samples/cd/ba/sample_cdba958a77a60e4f0b47076b1f926693.jpg",
    "https://img2.gelbooru.com/samples/e7/1b/sample_e71be12f28290bfcaaf4aad7ae7f515f.jpg",
    "https://img2.gelbooru.com/samples/10/b1/sample_10b18d092c401a0d45639a667f4b9f93.jpg",
    "https://img2.gelbooru.com/samples/62/ec/sample_62ecbbaeba23a7ce1dc78b7277d1a6f5.jpg",
    "https://img2.gelbooru.com/samples/3a/61/sample_3a61c84327cad488051d35a44d40a3bb.jpg",
    "https://img2.gelbooru.com/samples/d5/db/sample_d5db921fbc3e1361b51c0356f87e0dcb.jpg",
    "https://img2.gelbooru.com/samples/e7/20/sample_e7208ededc4dd453a2344b6879e62b7a.jpg",
    "https://img2.gelbooru.com/samples/38/46/sample_3846837730d18f3c6f05468d0eba77a2.jpg",
    "https://img2.gelbooru.com/samples/a5/43/sample_a5439d033957d927e4b04c794a2d0385.jpg",
    "https://img2.gelbooru.com/images/04/37/0437cb2f95f2e4495b1e0e05092bc204.jpeg",
    "https://img2.gelbooru.com/samples/bf/ad/sample_bfaddd4539b94f78aca053caa49a9e62.jpg",
    "https://img2.gelbooru.com/samples/62/cd/sample_62cdd845f14517de7048f6f81de94216.jpg",
    "https://img2.gelbooru.com/samples/3e/1a/sample_3e1a4ea6ea0124f397d8597ee697eca7.jpg",
    "https://img2.gelbooru.com/samples/ee/ba/sample_eeba64f08a84812174ca2ea2fc0f9390.jpg",
    "https://img2.gelbooru.com//images/05/94/0594293a7b3b16de5bc618e973b1f39b.jpeg",
    "https://img2.gelbooru.com/images/8a/96/8a96a53662a628b2a3848df73d3fd19b.jpg",
    "https://img2.gelbooru.com//images/49/90/49901cf23863582dc196a7ad8ff288e1.jpeg",
    "https://img2.gelbooru.com/images/e5/f0/e5f0f360cf527b2fc475e7b56a597e34.jpeg",
    "https://img2.gelbooru.com//images/43/02/430270062d4d6fbd9db257a73073adb1.jpeg",
    "https://img2.gelbooru.com//images/02/6d/026d6e83586b12085a4ee035cc75cf76.jpeg",
    "https://img2.gelbooru.com/images/18/ff/18ffe3cfffaefaac3364fa622db1d165.jpeg",
    "https://img2.gelbooru.com//images/b1/75/b17505a9e89bf840298c768846a4c270.jpg",
    "https://img2.gelbooru.com/images/07/d8/07d8f234292c0cbffbc1f42a8f9f674f.jpg",
    "https://img2.gelbooru.com//images/be/cd/becdf77d0b351ac2a2ec0d08ff0227d5.png",
    "https://img2.gelbooru.com//images/96/5d/965d220439eef3d2e8a7dbc2db5ac324.jpeg",
    "https://img2.gelbooru.com//images/70/b9/70b9257558a518eea641421166eb59d9.jpeg",
    "https://img2.gelbooru.com//images/6e/3b/6e3b19c64e0987069aac468339f7e781.jpeg",
    "https://img2.gelbooru.com//images/fc/21/fc2189160e2f1bb6931e8ca6de2af83a.png",
    "https://img2.gelbooru.com/images/95/7a/957a3a4d541a33317d34dcdd55167558.jpeg",
    "https://img2.gelbooru.com/images/cb/35/cb3533c12edcd6ff07bd6a8f4c8eef17.jpeg",
    "https://img2.gelbooru.com//images/b2/d7/b2d76d398fbb0d31dfc4a4c6b82eff85.jpeg",
    "https://img2.gelbooru.com//images/4d/14/4d148be407e4dbe535a25c9a917e0db1.jpeg",
    "https://img2.gelbooru.com//images/6c/58/6c58c7eade9bdd4ee39a95f2742fcef3.jpeg",
    "https://img2.gelbooru.com//images/24/36/243687971747b7df9e881ade3431831d.jpg",
    "https://img2.gelbooru.com//images/3b/64/3b64e75978b259f71998561382c79ba7.png",
    "https://img2.gelbooru.com//images/30/0e/300e394bfb7003e4b16e8cbdd0aef52a.png",
    "https://img2.gelbooru.com/images/e9/8a/e98af5b09930126c656cf252152fafee.jpeg",
    "https://img2.gelbooru.com//images/41/c0/41c040cdd813a0996cb769331a8d607e.jpeg",
    "https://img2.gelbooru.com/images/53/5d/535de475c6e4e3d916e18e4ad3e8d563.jpeg"
]